module gitlab.com/gitlab-com/runbooks/alertmanager/templates

go 1.22.5

require github.com/prometheus/alertmanager v0.27.0

require (
	github.com/beorn7/perks v1.0.1 // indirect
	github.com/cespare/xxhash/v2 v2.3.0 // indirect
	github.com/davecgh/go-spew v1.1.2-0.20180830191138-d8f796af33cc // indirect
	github.com/go-kit/log v0.2.1 // indirect
	github.com/go-logfmt/logfmt v0.6.0 // indirect
	github.com/pmezard/go-difflib v1.0.1-0.20181226105442-5d4384ee4fb2 // indirect
	github.com/prometheus/client_golang v1.19.1 // indirect
	github.com/prometheus/client_model v0.6.1 // indirect
	github.com/prometheus/common v0.54.0 // indirect
	github.com/prometheus/procfs v0.12.0 // indirect
	github.com/shurcooL/httpfs v0.0.0-20230704072500-f1e31cf0ba5c // indirect
	github.com/shurcooL/vfsgen v0.0.0-20200824052919-0d455de96546 // indirect
	github.com/stretchr/testify v1.9.0 // indirect
	golang.org/x/sys v0.21.0 // indirect
	golang.org/x/text v0.16.0 // indirect
	golang.org/x/tools v0.22.0 // indirect
	google.golang.org/protobuf v1.34.1 // indirect
)
