{
  "__inputs": [],
  "__requires": [],
  "annotations": {
    "list": [
      {
        "builtIn": 1,
        "datasource": "-- Grafana --",
        "enable": true,
        "hide": false,
        "iconColor": "#96D98D",
        "name": "deploy",
        "showIn": 0,
        "tags": [
          "deploy",
          "$environment"
        ],
        "type": "tags"
      },
      {
        "builtIn": 1,
        "datasource": "-- Grafana --",
        "enable": false,
        "hide": false,
        "iconColor": "#FFEE52",
        "name": "canary-deploy",
        "showIn": 0,
        "tags": [
          "deploy",
          "${environment}-cny"
        ],
        "type": "tags"
      },
      {
        "builtIn": 1,
        "datasource": "-- Grafana --",
        "enable": false,
        "hide": false,
        "iconColor": "#CA95E5",
        "name": "feature-flags",
        "showIn": 0,
        "tags": [
          "feature-flag",
          "${environment}"
        ],
        "type": "tags"
      }
    ]
  },
  "editable": false,
  "gnetId": null,
  "graphTooltip": 1,
  "hideControls": false,
  "id": null,
  "links": [
    {
      "asDropdown": true,
      "icon": "external link",
      "includeVars": false,
      "keepTime": true,
      "tags": "",
      "targetBlank": false,
      "title": "Platform Triage",
      "type": "link",
      "url": "https://dashboards.gitlab.net/d/general-triage/platform-triage?orgId=1"
    },
    {
      "asDropdown": true,
      "icon": "external link",
      "includeVars": true,
      "keepTime": true,
      "tags": [
        "managed",
        "service overview"
      ],
      "targetBlank": false,
      "title": "Service Overview Dashboards",
      "type": "dashboards",
      "url": ""
    },
    {
      "asDropdown": true,
      "icon": "dashboard",
      "includeVars": true,
      "keepTime": true,
      "tags": "type:gitlab-shell",
      "targetBlank": false,
      "title": "gitlab-shell Detail",
      "type": "dashboards",
      "url": ""
    },
    {
      "asDropdown": true,
      "icon": "external link",
      "includeVars": true,
      "keepTime": true,
      "tags": [
        "managed",
        "type:gitlab-shell",
        "kube detail"
      ],
      "targetBlank": false,
      "title": "☸️ gitlab-shell Kubernetes Detail",
      "type": "dashboards",
      "url": ""
    }
  ],
  "panels": [
    {
      "collapse": false,
      "collapsed": false,
      "gridPos": {
        "h": 1,
        "w": 24,
        "x": 0,
        "y": 0
      },
      "id": 2,
      "panels": [],
      "repeat": null,
      "repeatIteration": null,
      "repeatRowId": null,
      "showTitle": true,
      "title": "🌡️ Aggregated Service Level Indicators (𝙎𝙇𝙄𝙨)",
      "titleSize": "h6",
      "type": "row"
    },
    {
      "bars": false,
      "dashLength": 10,
      "dashes": false,
      "datasource": "$PROMETHEUS_DS",
      "decimals": 2,
      "description": "Apdex is a measure of requests that complete within a tolerable period of time for the service. Higher is better.",
      "fill": 0,
      "fillGradient": 0,
      "gridPos": {
        "h": 9,
        "w": 6,
        "x": 0,
        "y": 1
      },
      "id": 4249644182,
      "legend": {
        "alignAsTable": true,
        "avg": true,
        "current": true,
        "hideEmpty": true,
        "max": true,
        "min": true,
        "rightSide": false,
        "show": true,
        "total": false,
        "values": true
      },
      "lines": true,
      "linewidth": 2,
      "nullPointMode": "null",
      "options": {
        "dataLinks": [
          {
            "targetBlank": true,
            "title": "gitlab-shell Service Apdex SLO Analysis",
            "url": "/d/alerts-service_slo_apdex?${__url_time_range}\u0026${__all_variables}\u0026var-type=gitlab-shell"
          }
        ]
      },
      "percentage": false,
      "pointradius": 5,
      "points": false,
      "renderer": "flot",
      "seriesOverrides": [
        {
          "alias": "/6h Degradation SLO \\(5% of monthly error budget\\).*/",
          "color": "#FF4500",
          "dashLength": 4,
          "dashes": true,
          "legend": true,
          "lines": true,
          "linewidth": 2,
          "nullPointMode": "connected",
          "spaceLength": 10,
          "zindex": -2
        },
        {
          "alias": "/1h Outage SLO \\(2% of monthly error budget\\).*/",
          "color": "#F2495C",
          "dashLength": 4,
          "dashes": true,
          "legend": true,
          "lines": true,
          "linewidth": 4,
          "nullPointMode": "connected",
          "spaceLength": 4,
          "zindex": -2
        },
        {
          "alias": "/.*shard (apdex|error ratio|RPS)$/",
          "color": "#E7D551"
        },
        {
          "alias": "gitlab-shell apdex avg",
          "color": "#5794F2",
          "dashLength": 1,
          "fillBelowTo": "gitlab-shell apdex",
          "linewidth": 1,
          "spaceLength": 1,
          "zindex": -3
        },
        {
          "alias": "last week",
          "color": "#dddddd80",
          "dashLength": 4,
          "dashes": true,
          "fill": 0,
          "legend": true,
          "lines": true,
          "linewidth": 1,
          "nullPointMode": "connected",
          "spaceLength": 2,
          "zindex": -3
        },
        {
          "alias": "gitlab-shell apdex",
          "color": "#E7D551",
          "zindex": 3
        }
      ],
      "spaceLength": 10,
      "stableId": "service-gitlab-shell-apdex",
      "stack": false,
      "steppedLine": false,
      "targets": [
        {
          "expr": "min_over_time(gitlab_service_apdex:ratio_5m{type=\"gitlab-shell\"}[$__interval])\n",
          "format": "time_series",
          "interval": "1m",
          "intervalFactor": 1,
          "legendFormat": "gitlab-shell apdex",
          "refId": "A"
        },
        {
          "expr": "(1 - 6 * (1 - avg(slo:min:events:gitlab_service_apdex:ratio{component=\"\",type=\"gitlab-shell\"})\n))\n",
          "format": "time_series",
          "interval": "5m",
          "intervalFactor": 1,
          "legendFormat": "6h Degradation SLO (5% of monthly error budget)",
          "refId": "B"
        },
        {
          "expr": "(1 - 14.4 * (1 - avg(slo:min:events:gitlab_service_apdex:ratio{component=\"\",type=\"gitlab-shell\"})\n))\n",
          "format": "time_series",
          "interval": "5m",
          "intervalFactor": 1,
          "legendFormat": "1h Outage SLO (2% of monthly error budget)",
          "refId": "C"
        },
        {
          "expr": "avg_over_time(gitlab_service_apdex:ratio_5m{type=\"gitlab-shell\"}[$__interval])\n",
          "format": "time_series",
          "interval": "1m",
          "intervalFactor": 1,
          "legendFormat": "gitlab-shell apdex avg",
          "refId": "D"
        },
        {
          "expr": "clamp_min(\n  gitlab_service_apdex:ratio_5m{type=\"gitlab-shell\"} offset 1w\n,\n  scalar(min((1 - 14.4 * (1 - avg(slo:min:events:gitlab_service_apdex:ratio{component=\"\",type=\"gitlab-shell\"})\n))\n))\n)\n",
          "format": "time_series",
          "interval": "1m",
          "intervalFactor": 1,
          "legendFormat": "last week",
          "refId": "E"
        }
      ],
      "title": "gitlab-shell Service Apdex",
      "tooltip": {
        "shared": true,
        "sort": 1,
        "value_type": "individual"
      },
      "type": "graph",
      "xaxis": {
        "mode": "time",
        "show": true
      },
      "yaxes": [
        {
          "format": "percentunit",
          "label": "Apdex %",
          "logBase": 1,
          "max": 1,
          "show": true
        },
        {
          "format": "short",
          "logBase": 1,
          "max": 1,
          "min": 0,
          "show": false
        }
      ]
    },
    {
      "datasource": "$PROMETHEUS_DS",
      "description": "",
      "fieldConfig": {
        "defaults": {
          "decimals": 0,
          "displayName": "Status",
          "mappings": [
            {
              "id": 0,
              "options": {
                "0": {
                  "color": "black",
                  "index": 0,
                  "text": "Healthy"
                },
                "1": {
                  "color": "orange",
                  "index": 1,
                  "text": "Warning: 1h deteriorating"
                },
                "10": {
                  "color": "orange",
                  "index": 10,
                  "text": "Warning: 6h recovering, 1h recovering"
                },
                "11": {
                  "color": "red",
                  "index": 11,
                  "text": "Degraded: 6h recovering, 1h degraded"
                },
                "12": {
                  "color": "red",
                  "index": 12,
                  "text": "Degraded: 6h degraded"
                },
                "13": {
                  "color": "red",
                  "index": 13,
                  "text": "Degraded: 6h degraded, 1h deteriorating"
                },
                "14": {
                  "color": "red",
                  "index": 14,
                  "text": "Degraded: 6h degraded, 1h recovering"
                },
                "15": {
                  "color": "red",
                  "index": 15,
                  "text": "Degraded: 6h degraded, 1h degraded"
                },
                "2": {
                  "color": "orange",
                  "index": 2,
                  "text": "Warning: 1h recovering"
                },
                "3": {
                  "color": "red",
                  "index": 3,
                  "text": "Degraded: 1h degraded"
                },
                "4": {
                  "color": "orange",
                  "index": 4,
                  "text": "Warning: 6h deteriorating"
                },
                "5": {
                  "color": "orange",
                  "index": 5,
                  "text": "Warning: 6h deteriorating, 1h deteriorating"
                },
                "6": {
                  "color": "orange",
                  "index": 6,
                  "text": "Warning: 6h deteriorating, 1h recovering"
                },
                "7": {
                  "color": "red",
                  "index": 7,
                  "text": "Degraded: 6h deteriorating, 1h degraded"
                },
                "8": {
                  "color": "orange",
                  "index": 8,
                  "text": "Warning: 6h recovering"
                },
                "9": {
                  "color": "orange",
                  "index": 9,
                  "text": "Warning: 6h recovering, 1h deteriorating"
                }
              },
              "type": "value"
            }
          ],
          "thresholds": {
            "mode": "absolute",
            "steps": [
              {
                "color": "black",
                "value": 0
              },
              {
                "color": "orange",
                "value": 1
              },
              {
                "color": "orange",
                "value": 2
              },
              {
                "color": "red",
                "value": 3
              },
              {
                "color": "orange",
                "value": 4
              },
              {
                "color": "orange",
                "value": 5
              },
              {
                "color": "orange",
                "value": 6
              },
              {
                "color": "red",
                "value": 7
              },
              {
                "color": "orange",
                "value": 8
              },
              {
                "color": "orange",
                "value": 9
              },
              {
                "color": "orange",
                "value": 10
              },
              {
                "color": "red",
                "value": 11
              },
              {
                "color": "red",
                "value": 12
              },
              {
                "color": "red",
                "value": 13
              },
              {
                "color": "red",
                "value": 14
              },
              {
                "color": "red",
                "value": 15
              }
            ]
          },
          "unit": "none"
        }
      },
      "gridPos": {
        "h": 1,
        "w": 6,
        "x": 0,
        "y": 10
      },
      "id": 4,
      "options": {
        "colorMode": "background",
        "graphMode": "none",
        "justifyMode": "auto",
        "orientation": "vertical",
        "reduceOptions": {
          "calcs": [
            "lastNotNull"
          ],
          "fields": "",
          "values": false
        },
        "textMode": "auto"
      },
      "pluginVersion": "7",
      "targets": [
        {
          "expr": "sum(\n  label_replace(\n    vector(0) and on() (gitlab_service_apdex:ratio_1h{type=\"gitlab-shell\"}),\n    \"period\", \"na\", \"\", \"\"\n  )\n  or\n  label_replace(\n    vector(1) and on () (gitlab_service_apdex:ratio_5m{type=\"gitlab-shell\"} \u003c on(tier, type, __tenant_id__) group_left() (1 - (14.4 * (1 - slo:min:events:gitlab_service_apdex:ratio{component=\"\",type=\"gitlab-shell\"})))),\n    \"period\", \"5m\", \"\", \"\"\n  )\n  or\n  label_replace(\n    vector(2) and on () (gitlab_service_apdex:ratio_1h{type=\"gitlab-shell\"} \u003c on(tier, type, __tenant_id__) group_left() (1 - (14.4 * (1 - slo:min:events:gitlab_service_apdex:ratio{component=\"\",type=\"gitlab-shell\"})))),\n    \"period\", \"1h\", \"\", \"\"\n  )\n  or\n  label_replace(\n    vector(4) and on () (gitlab_service_apdex:ratio_30m{type=\"gitlab-shell\"} \u003c on(tier, type, __tenant_id__) group_left() (1 - (6 * (1 - slo:min:events:gitlab_service_apdex:ratio{component=\"\",type=\"gitlab-shell\"})))),\n    \"period\", \"30m\", \"\", \"\"\n  )\n  or\n  label_replace(\n    vector(8) and on () (gitlab_service_apdex:ratio_6h{type=\"gitlab-shell\"} \u003c on(tier, type, __tenant_id__) group_left() (1 - (6 * (1 - slo:min:events:gitlab_service_apdex:ratio{component=\"\",type=\"gitlab-shell\"})))),\n    \"period\", \"6h\", \"\", \"\"\n  )\n)\n",
          "format": "time_series",
          "instant": true,
          "interval": "1m",
          "intervalFactor": 1,
          "legendFormat": "gitlab-shell Service | Latency/Apdex",
          "refId": "A"
        }
      ],
      "title": "",
      "transparent": false,
      "type": "stat"
    },
    {
      "bars": false,
      "dashLength": 10,
      "dashes": false,
      "datasource": "$PROMETHEUS_DS",
      "decimals": 2,
      "description": "Error rates are a measure of unhandled service exceptions per second. Client errors are excluded when possible. Lower is better",
      "fill": 0,
      "fillGradient": 0,
      "gridPos": {
        "h": 9,
        "w": 6,
        "x": 6,
        "y": 1
      },
      "id": 3276176786,
      "legend": {
        "alignAsTable": true,
        "avg": true,
        "current": true,
        "hideEmpty": true,
        "max": true,
        "min": true,
        "rightSide": false,
        "show": true,
        "total": false,
        "values": true
      },
      "lines": true,
      "linewidth": 2,
      "nullPointMode": "null",
      "options": {
        "dataLinks": [
          {
            "targetBlank": true,
            "title": "gitlab-shell Service Error-Rate SLO Analysis",
            "url": "/d/alerts-service_slo_error?${__url_time_range}\u0026${__all_variables}\u0026var-type=gitlab-shell"
          }
        ]
      },
      "percentage": false,
      "pointradius": 5,
      "points": false,
      "renderer": "flot",
      "seriesOverrides": [
        {
          "alias": "/6h Degradation SLO \\(5% of monthly error budget\\).*/",
          "color": "#FF4500",
          "dashLength": 4,
          "dashes": true,
          "legend": true,
          "lines": true,
          "linewidth": 2,
          "nullPointMode": "connected",
          "spaceLength": 10,
          "zindex": -2
        },
        {
          "alias": "/1h Outage SLO \\(2% of monthly error budget\\).*/",
          "color": "#F2495C",
          "dashLength": 4,
          "dashes": true,
          "legend": true,
          "lines": true,
          "linewidth": 4,
          "nullPointMode": "connected",
          "spaceLength": 4,
          "zindex": -2
        },
        {
          "alias": "/.*shard (apdex|error ratio|RPS)$/",
          "color": "#E7D551"
        },
        {
          "alias": "gitlab-shell error ratio avg",
          "color": "#5794F2",
          "dashLength": 1,
          "fillGradient": 10,
          "linewidth": 1,
          "spaceLength": 1,
          "zindex": -3
        },
        {
          "alias": "last week",
          "color": "#dddddd80",
          "dashLength": 4,
          "dashes": true,
          "fill": 0,
          "legend": true,
          "lines": true,
          "linewidth": 1,
          "nullPointMode": "connected",
          "spaceLength": 2,
          "zindex": -3
        },
        {
          "alias": "gitlab-shell error ratio",
          "color": "#E7D551",
          "fillBelowTo": "gitlab-shell error ratio avg",
          "zindex": 3
        }
      ],
      "spaceLength": 10,
      "stableId": "service-gitlab-shell-error-rate",
      "stack": false,
      "steppedLine": false,
      "targets": [
        {
          "expr": "clamp_max(\n  max_over_time(gitlab_service_errors:ratio_5m{type=\"gitlab-shell\"}[$__interval])\n,\n  1\n)\n",
          "format": "time_series",
          "interval": "1m",
          "intervalFactor": 1,
          "legendFormat": "gitlab-shell error ratio",
          "refId": "A"
        },
        {
          "expr": "(6 * avg(slo:max:events:gitlab_service_errors:ratio{component=\"\",type=\"gitlab-shell\"})\n)\n",
          "format": "time_series",
          "interval": "5m",
          "intervalFactor": 1,
          "legendFormat": "6h Degradation SLO (5% of monthly error budget)",
          "refId": "B"
        },
        {
          "expr": "(14.4 * avg(slo:max:events:gitlab_service_errors:ratio{component=\"\",type=\"gitlab-shell\"})\n)\n",
          "format": "time_series",
          "interval": "5m",
          "intervalFactor": 1,
          "legendFormat": "1h Outage SLO (2% of monthly error budget)",
          "refId": "C"
        },
        {
          "expr": "clamp_max(\n  avg_over_time(gitlab_service_errors:ratio_5m{type=\"gitlab-shell\"}[$__interval])\n,\n  1\n)\n",
          "format": "time_series",
          "interval": "1m",
          "intervalFactor": 1,
          "legendFormat": "gitlab-shell error ratio avg",
          "refId": "D"
        },
        {
          "expr": "clamp_max(\n  gitlab_service_errors:ratio_5m{type=\"gitlab-shell\"} offset 1w\n,\n  scalar(max((14.4 * avg(slo:max:events:gitlab_service_errors:ratio{component=\"\",type=\"gitlab-shell\"})\n)\n))\n)\n",
          "format": "time_series",
          "interval": "1m",
          "intervalFactor": 1,
          "legendFormat": "last week",
          "refId": "E"
        }
      ],
      "title": "gitlab-shell Service Error Ratio",
      "tooltip": {
        "shared": true,
        "sort": 2,
        "value_type": "individual"
      },
      "type": "graph",
      "xaxis": {
        "mode": "time",
        "show": true
      },
      "yaxes": [
        {
          "format": "percentunit",
          "label": "Error %",
          "logBase": 1,
          "min": 0,
          "show": true
        },
        {
          "format": "short",
          "logBase": 1,
          "max": 1,
          "min": 0,
          "show": false
        }
      ]
    },
    {
      "datasource": "$PROMETHEUS_DS",
      "description": "",
      "fieldConfig": {
        "defaults": {
          "decimals": 0,
          "displayName": "Status",
          "mappings": [
            {
              "id": 0,
              "options": {
                "0": {
                  "color": "black",
                  "index": 0,
                  "text": "Healthy"
                },
                "1": {
                  "color": "orange",
                  "index": 1,
                  "text": "Warning: 1h deteriorating"
                },
                "10": {
                  "color": "orange",
                  "index": 10,
                  "text": "Warning: 6h recovering, 1h recovering"
                },
                "11": {
                  "color": "red",
                  "index": 11,
                  "text": "Degraded: 6h recovering, 1h degraded"
                },
                "12": {
                  "color": "red",
                  "index": 12,
                  "text": "Degraded: 6h degraded"
                },
                "13": {
                  "color": "red",
                  "index": 13,
                  "text": "Degraded: 6h degraded, 1h deteriorating"
                },
                "14": {
                  "color": "red",
                  "index": 14,
                  "text": "Degraded: 6h degraded, 1h recovering"
                },
                "15": {
                  "color": "red",
                  "index": 15,
                  "text": "Degraded: 6h degraded, 1h degraded"
                },
                "2": {
                  "color": "orange",
                  "index": 2,
                  "text": "Warning: 1h recovering"
                },
                "3": {
                  "color": "red",
                  "index": 3,
                  "text": "Degraded: 1h degraded"
                },
                "4": {
                  "color": "orange",
                  "index": 4,
                  "text": "Warning: 6h deteriorating"
                },
                "5": {
                  "color": "orange",
                  "index": 5,
                  "text": "Warning: 6h deteriorating, 1h deteriorating"
                },
                "6": {
                  "color": "orange",
                  "index": 6,
                  "text": "Warning: 6h deteriorating, 1h recovering"
                },
                "7": {
                  "color": "red",
                  "index": 7,
                  "text": "Degraded: 6h deteriorating, 1h degraded"
                },
                "8": {
                  "color": "orange",
                  "index": 8,
                  "text": "Warning: 6h recovering"
                },
                "9": {
                  "color": "orange",
                  "index": 9,
                  "text": "Warning: 6h recovering, 1h deteriorating"
                }
              },
              "type": "value"
            }
          ],
          "thresholds": {
            "mode": "absolute",
            "steps": [
              {
                "color": "black",
                "value": 0
              },
              {
                "color": "orange",
                "value": 1
              },
              {
                "color": "orange",
                "value": 2
              },
              {
                "color": "red",
                "value": 3
              },
              {
                "color": "orange",
                "value": 4
              },
              {
                "color": "orange",
                "value": 5
              },
              {
                "color": "orange",
                "value": 6
              },
              {
                "color": "red",
                "value": 7
              },
              {
                "color": "orange",
                "value": 8
              },
              {
                "color": "orange",
                "value": 9
              },
              {
                "color": "orange",
                "value": 10
              },
              {
                "color": "red",
                "value": 11
              },
              {
                "color": "red",
                "value": 12
              },
              {
                "color": "red",
                "value": 13
              },
              {
                "color": "red",
                "value": 14
              },
              {
                "color": "red",
                "value": 15
              }
            ]
          },
          "unit": "none"
        }
      },
      "gridPos": {
        "h": 1,
        "w": 6,
        "x": 6,
        "y": 10
      },
      "id": 6,
      "options": {
        "colorMode": "background",
        "graphMode": "none",
        "justifyMode": "auto",
        "orientation": "vertical",
        "reduceOptions": {
          "calcs": [
            "lastNotNull"
          ],
          "fields": "",
          "values": false
        },
        "textMode": "auto"
      },
      "pluginVersion": "7",
      "targets": [
        {
          "expr": "sum(\n  label_replace(\n    vector(0) and on() (gitlab_service_errors:ratio_1h{type=\"gitlab-shell\"}),\n    \"period\", \"na\", \"\", \"\"\n  )\n  or\n  label_replace(\n    vector(1) and on () (gitlab_service_errors:ratio_5m{type=\"gitlab-shell\"} \u003e on(tier, type, __tenant_id__) group_left() (14.4 * slo:max:events:gitlab_service_errors:ratio{component=\"\",type=\"gitlab-shell\"})),\n    \"period\", \"5m\", \"\", \"\"\n  )\n  or\n  label_replace(\n    vector(2) and on () (gitlab_service_errors:ratio_1h{type=\"gitlab-shell\"} \u003e on(tier, type, __tenant_id__) group_left() (14.4 * slo:max:events:gitlab_service_errors:ratio{component=\"\",type=\"gitlab-shell\"})),\n    \"period\", \"1h\", \"\", \"\"\n  )\n  or\n  label_replace(\n    vector(4) and on () (gitlab_service_errors:ratio_30m{type=\"gitlab-shell\"} \u003e on(tier, type, __tenant_id__) group_left() (6 * slo:max:events:gitlab_service_errors:ratio{component=\"\",type=\"gitlab-shell\"})),\n    \"period\", \"30m\", \"\", \"\"\n  )\n  or\n  label_replace(\n    vector(8) and on () (gitlab_service_errors:ratio_6h{type=\"gitlab-shell\"} \u003e on(tier, type, __tenant_id__) group_left() (6 * slo:max:events:gitlab_service_errors:ratio{component=\"\",type=\"gitlab-shell\"})),\n    \"period\", \"6h\", \"\", \"\"\n  )\n)\n",
          "format": "time_series",
          "instant": true,
          "interval": "1m",
          "intervalFactor": 1,
          "legendFormat": "gitlab-shell Service | Errors",
          "refId": "A"
        }
      ],
      "title": "",
      "transparent": false,
      "type": "stat"
    },
    {
      "bars": false,
      "dashLength": 10,
      "dashes": false,
      "datasource": "$PROMETHEUS_DS",
      "decimals": 2,
      "description": "The operation rate is the sum total of all requests being handle for all components within this service. Note that a single user request can lead to requests to multiple components. Higher is busier.",
      "fill": 0,
      "fillGradient": 0,
      "gridPos": {
        "h": 10,
        "w": 6,
        "x": 12,
        "y": 1
      },
      "id": 2191929580,
      "legend": {
        "alignAsTable": true,
        "avg": true,
        "current": true,
        "hideEmpty": true,
        "max": true,
        "min": true,
        "rightSide": false,
        "show": true,
        "total": false,
        "values": true
      },
      "lines": true,
      "linewidth": 2,
      "nullPointMode": "null",
      "percentage": false,
      "pointradius": 5,
      "points": false,
      "renderer": "flot",
      "seriesOverrides": [
        {
          "alias": "/.*shard (apdex|error ratio|RPS)$/",
          "color": "#E7D551"
        },
        {
          "alias": "gitlab-shell RPS",
          "color": "#E7D551",
          "zindex": 3
        },
        {
          "alias": "last week",
          "color": "#dddddd80",
          "dashLength": 4,
          "dashes": true,
          "fill": 0,
          "legend": true,
          "lines": true,
          "linewidth": 1,
          "nullPointMode": "connected",
          "spaceLength": 2,
          "zindex": -3
        },
        {
          "alias": "upper normal",
          "color": "#73BF69",
          "dashLength": 8,
          "dashes": true,
          "fillBelowTo": "lower normal",
          "legend": false,
          "lines": false,
          "linewidth": 1,
          "nullPointMode": "connected",
          "spaceLength": 8,
          "zindex": -3
        },
        {
          "alias": "lower normal",
          "color": "#73BF69",
          "dashLength": 8,
          "dashes": true,
          "legend": false,
          "lines": false,
          "linewidth": 1,
          "nullPointMode": "connected",
          "spaceLength": 8,
          "zindex": -3
        }
      ],
      "spaceLength": 10,
      "stableId": "service-gitlab-shell-ops-rate",
      "stack": false,
      "steppedLine": false,
      "targets": [
        {
          "expr": "avg_over_time(gitlab_service_ops:rate_5m{type=\"gitlab-shell\"}[$__interval])\n",
          "format": "time_series",
          "interval": "1m",
          "intervalFactor": 1,
          "legendFormat": "gitlab-shell RPS",
          "refId": "A"
        },
        {
          "expr": "gitlab_service_ops:rate_5m{type=\"gitlab-shell\"} offset 1w\n",
          "format": "time_series",
          "interval": "1m",
          "intervalFactor": 1,
          "legendFormat": "last week",
          "refId": "B"
        },
        {
          "expr": "clamp_min(\n  avg by (type) (\n    gitlab_service_ops:rate:prediction{type=\"gitlab-shell\"}\n    + (1) *\n    gitlab_service_ops:rate:stddev_over_time_1w{type=\"gitlab-shell\"}\n  ),\n  0\n)\n",
          "format": "time_series",
          "interval": "1m",
          "intervalFactor": 1,
          "legendFormat": "upper normal",
          "refId": "C"
        },
        {
          "expr": "clamp_min(\n  avg by (type) (\n    gitlab_service_ops:rate:prediction{type=\"gitlab-shell\"}\n    + (-1) *\n    gitlab_service_ops:rate:stddev_over_time_1w{type=\"gitlab-shell\"}\n  ),\n  0\n)\n",
          "format": "time_series",
          "interval": "1m",
          "intervalFactor": 1,
          "legendFormat": "lower normal",
          "refId": "D"
        }
      ],
      "title": "gitlab-shell Service RPS - Requests per Second",
      "tooltip": {
        "shared": true,
        "sort": 2,
        "value_type": "individual"
      },
      "type": "graph",
      "xaxis": {
        "mode": "time",
        "show": true
      },
      "yaxes": [
        {
          "format": "short",
          "label": "Operations per Second",
          "logBase": 1,
          "min": 0,
          "show": true
        },
        {
          "format": "short",
          "logBase": 1,
          "max": 1,
          "min": 0,
          "show": false
        }
      ]
    },
    {
      "bars": false,
      "dashLength": 10,
      "dashes": false,
      "datasource": "$PROMETHEUS_DS",
      "decimals": 2,
      "description": "Saturation is a measure of what ratio of a finite resource is currently being utilized. Lower is better.",
      "fill": 0,
      "fillGradient": 0,
      "gridPos": {
        "h": 10,
        "w": 6,
        "x": 18,
        "y": 1
      },
      "id": 1217942947,
      "legend": {
        "alignAsTable": true,
        "avg": true,
        "current": true,
        "hideEmpty": true,
        "max": true,
        "min": true,
        "rightSide": false,
        "show": true,
        "total": false,
        "values": true
      },
      "lines": true,
      "linewidth": 1,
      "links": [
        {
          "title": "gitlab-shell Service | kube_container_cpu_limit resource Dashboard",
          "url": "https://dashboards.gitlab.net/d/alerts-sat_kube_container_cpu_limit/?var-environment=gprd\u0026var-type=gitlab-shell\u0026var-stage=main\u0026var-component=kube_container_cpu_limit"
        },
        {
          "title": "gitlab-shell Service | kube_container_memory resource Dashboard",
          "url": "https://dashboards.gitlab.net/d/alerts-sat_kube_container_memory/?var-environment=gprd\u0026var-type=gitlab-shell\u0026var-stage=main\u0026var-component=kube_container_memory"
        }
      ],
      "nullPointMode": "null",
      "percentage": false,
      "pointradius": 5,
      "points": false,
      "renderer": "flot",
      "spaceLength": 10,
      "stableId": "service-utilization",
      "stack": false,
      "steppedLine": false,
      "targets": [
        {
          "expr": "max(\n  max_over_time(\n    gitlab_component_saturation:ratio{type=\"gitlab-shell\"}[$__interval]\n  )\n) by (component)\n",
          "format": "time_series",
          "interval": "1m",
          "intervalFactor": 1,
          "legendFormat": "{{ component }} component",
          "refId": "A"
        }
      ],
      "title": "Saturation",
      "tooltip": {
        "shared": true,
        "sort": 2,
        "value_type": "individual"
      },
      "type": "graph",
      "xaxis": {
        "mode": "time",
        "show": true
      },
      "yaxes": [
        {
          "format": "percentunit",
          "label": "Saturation %",
          "logBase": 1,
          "max": 1,
          "show": true
        },
        {
          "format": "short",
          "logBase": 1,
          "max": 1,
          "min": 0,
          "show": false
        }
      ]
    },
    {
      "collapse": false,
      "collapsed": false,
      "gridPos": {
        "h": 1,
        "w": 24,
        "x": 0,
        "y": 20
      },
      "id": 9,
      "panels": [],
      "repeat": null,
      "repeatIteration": null,
      "repeatRowId": null,
      "showTitle": true,
      "title": "🔬 Service Level Indicators",
      "titleSize": "h6",
      "type": "row"
    },
    {
      "bars": false,
      "dashLength": 10,
      "dashes": false,
      "datasource": "$PROMETHEUS_DS",
      "decimals": 2,
      "description": "Apdex is a measure of requests that complete within a tolerable period of time for the service. Higher is better.",
      "fill": 0,
      "fillGradient": 0,
      "gridPos": {
        "h": 7,
        "w": 6,
        "x": 0,
        "y": 21
      },
      "id": 2041855155,
      "legend": {
        "alignAsTable": true,
        "avg": true,
        "current": true,
        "hideEmpty": true,
        "max": true,
        "min": true,
        "rightSide": false,
        "show": true,
        "total": false,
        "values": true
      },
      "lines": true,
      "linewidth": 2,
      "nullPointMode": "null",
      "options": {
        "dataLinks": [
          {
            "targetBlank": true,
            "title": "grpc_requests SLI Apdex SLO Analysis",
            "url": "/d/alerts-component_slo_apdex?${__url_time_range}\u0026${__all_variables}\u0026var-component=grpc_requests\u0026var-type=gitlab-shell"
          }
        ]
      },
      "percentage": false,
      "pointradius": 5,
      "points": false,
      "renderer": "flot",
      "seriesOverrides": [
        {
          "alias": "/6h Degradation SLO \\(5% of monthly error budget\\).*/",
          "color": "#FF4500",
          "dashLength": 4,
          "dashes": true,
          "legend": true,
          "lines": true,
          "linewidth": 2,
          "nullPointMode": "connected",
          "spaceLength": 10,
          "zindex": -2
        },
        {
          "alias": "/1h Outage SLO \\(2% of monthly error budget\\).*/",
          "color": "#F2495C",
          "dashLength": 4,
          "dashes": true,
          "legend": true,
          "lines": true,
          "linewidth": 4,
          "nullPointMode": "connected",
          "spaceLength": 4,
          "zindex": -2
        },
        {
          "alias": "/.*shard (apdex|error ratio|RPS)$/",
          "color": "#E7D551"
        },
        {
          "alias": "grpc_requests apdex avg",
          "color": "#5794F2",
          "dashLength": 1,
          "fillBelowTo": "grpc_requests apdex",
          "linewidth": 1,
          "spaceLength": 1,
          "zindex": -3
        },
        {
          "alias": "last week",
          "color": "#dddddd80",
          "dashLength": 4,
          "dashes": true,
          "fill": 0,
          "legend": true,
          "lines": true,
          "linewidth": 1,
          "nullPointMode": "connected",
          "spaceLength": 2,
          "zindex": -3
        },
        {
          "alias": "Apdex SLI (upper 98% confidence boundary)",
          "color": "#E7D551",
          "zindex": 3
        },
        {
          "alias": "grpc_requests apdex",
          "color": "#082e69",
          "lines": true
        }
      ],
      "spaceLength": 10,
      "stableId": "sli-grpc_requests-apdex",
      "stack": false,
      "steppedLine": false,
      "targets": [
        {
          "expr": "min_over_time(gitlab_component_apdex:ratio_5m{component=\"grpc_requests\",type=\"gitlab-shell\"}[$__interval])\n",
          "format": "time_series",
          "interval": "1m",
          "intervalFactor": 1,
          "legendFormat": "grpc_requests apdex",
          "refId": "A"
        },
        {
          "expr": "(1 - 6 * (1 - avg(slo:min:events:gitlab_service_apdex:ratio{component=\"grpc_requests\",type=\"gitlab-shell\"})\n))\n",
          "format": "time_series",
          "interval": "5m",
          "intervalFactor": 1,
          "legendFormat": "6h Degradation SLO (5% of monthly error budget)",
          "refId": "B"
        },
        {
          "expr": "(1 - 14.4 * (1 - avg(slo:min:events:gitlab_service_apdex:ratio{component=\"grpc_requests\",type=\"gitlab-shell\"})\n))\n",
          "format": "time_series",
          "interval": "5m",
          "intervalFactor": 1,
          "legendFormat": "1h Outage SLO (2% of monthly error budget)",
          "refId": "C"
        },
        {
          "expr": "avg_over_time(gitlab_component_apdex:ratio_5m{component=\"grpc_requests\",type=\"gitlab-shell\"}[$__interval])\n",
          "format": "time_series",
          "interval": "1m",
          "intervalFactor": 1,
          "legendFormat": "grpc_requests apdex avg",
          "refId": "D"
        },
        {
          "expr": "clamp_min(\n  gitlab_component_apdex:ratio_5m{component=\"grpc_requests\",type=\"gitlab-shell\"} offset 1w\n,\n  scalar(min((1 - 14.4 * (1 - avg(slo:min:events:gitlab_service_apdex:ratio{component=\"grpc_requests\",type=\"gitlab-shell\"})\n))\n))\n)\n",
          "format": "time_series",
          "interval": "1m",
          "intervalFactor": 1,
          "legendFormat": "last week",
          "refId": "E"
        },
        {
          "expr": "avg_over_time(gitlab_component_apdex:confidence:ratio_5m{component=\"grpc_requests\",confidence=\"98%\",type=\"gitlab-shell\"}[$__interval])\n",
          "format": "time_series",
          "interval": "1m",
          "intervalFactor": 1,
          "legendFormat": "Apdex SLI (upper 98% confidence boundary)",
          "refId": "F"
        }
      ],
      "title": "grpc_requests SLI Apdex",
      "tooltip": {
        "shared": true,
        "sort": 1,
        "value_type": "individual"
      },
      "type": "graph",
      "xaxis": {
        "mode": "time",
        "show": true
      },
      "yaxes": [
        {
          "format": "percentunit",
          "label": "Apdex %",
          "logBase": 1,
          "max": 1,
          "show": true
        },
        {
          "format": "short",
          "logBase": 1,
          "max": 1,
          "min": 0,
          "show": false
        }
      ]
    },
    {
      "datasource": "$PROMETHEUS_DS",
      "description": "",
      "fieldConfig": {
        "defaults": {
          "decimals": 0,
          "displayName": "Status",
          "mappings": [
            {
              "id": 0,
              "options": {
                "0": {
                  "color": "black",
                  "index": 0,
                  "text": "Healthy"
                },
                "1": {
                  "color": "orange",
                  "index": 1,
                  "text": "Warning: 1h deteriorating"
                },
                "10": {
                  "color": "orange",
                  "index": 10,
                  "text": "Warning: 6h recovering, 1h recovering"
                },
                "11": {
                  "color": "red",
                  "index": 11,
                  "text": "Degraded: 6h recovering, 1h degraded"
                },
                "12": {
                  "color": "red",
                  "index": 12,
                  "text": "Degraded: 6h degraded"
                },
                "13": {
                  "color": "red",
                  "index": 13,
                  "text": "Degraded: 6h degraded, 1h deteriorating"
                },
                "14": {
                  "color": "red",
                  "index": 14,
                  "text": "Degraded: 6h degraded, 1h recovering"
                },
                "15": {
                  "color": "red",
                  "index": 15,
                  "text": "Degraded: 6h degraded, 1h degraded"
                },
                "2": {
                  "color": "orange",
                  "index": 2,
                  "text": "Warning: 1h recovering"
                },
                "3": {
                  "color": "red",
                  "index": 3,
                  "text": "Degraded: 1h degraded"
                },
                "4": {
                  "color": "orange",
                  "index": 4,
                  "text": "Warning: 6h deteriorating"
                },
                "5": {
                  "color": "orange",
                  "index": 5,
                  "text": "Warning: 6h deteriorating, 1h deteriorating"
                },
                "6": {
                  "color": "orange",
                  "index": 6,
                  "text": "Warning: 6h deteriorating, 1h recovering"
                },
                "7": {
                  "color": "red",
                  "index": 7,
                  "text": "Degraded: 6h deteriorating, 1h degraded"
                },
                "8": {
                  "color": "orange",
                  "index": 8,
                  "text": "Warning: 6h recovering"
                },
                "9": {
                  "color": "orange",
                  "index": 9,
                  "text": "Warning: 6h recovering, 1h deteriorating"
                }
              },
              "type": "value"
            }
          ],
          "thresholds": {
            "mode": "absolute",
            "steps": [
              {
                "color": "black",
                "value": 0
              },
              {
                "color": "orange",
                "value": 1
              },
              {
                "color": "orange",
                "value": 2
              },
              {
                "color": "red",
                "value": 3
              },
              {
                "color": "orange",
                "value": 4
              },
              {
                "color": "orange",
                "value": 5
              },
              {
                "color": "orange",
                "value": 6
              },
              {
                "color": "red",
                "value": 7
              },
              {
                "color": "orange",
                "value": 8
              },
              {
                "color": "orange",
                "value": 9
              },
              {
                "color": "orange",
                "value": 10
              },
              {
                "color": "red",
                "value": 11
              },
              {
                "color": "red",
                "value": 12
              },
              {
                "color": "red",
                "value": 13
              },
              {
                "color": "red",
                "value": 14
              },
              {
                "color": "red",
                "value": 15
              }
            ]
          },
          "unit": "none"
        }
      },
      "gridPos": {
        "h": 1,
        "w": 6,
        "x": 0,
        "y": 28
      },
      "id": 11,
      "options": {
        "colorMode": "background",
        "graphMode": "none",
        "justifyMode": "auto",
        "orientation": "vertical",
        "reduceOptions": {
          "calcs": [
            "lastNotNull"
          ],
          "fields": "",
          "values": false
        },
        "textMode": "auto"
      },
      "pluginVersion": "7",
      "targets": [
        {
          "expr": "sum(\n  label_replace(\n    vector(0) and on() (gitlab_component_apdex:confidence:ratio_1h{component=\"grpc_requests\",confidence=\"98%\",type=\"gitlab-shell\"}),\n    \"period\", \"na\", \"\", \"\"\n  )\n  or\n  label_replace(\n    vector(1) and on () (gitlab_component_apdex:confidence:ratio_5m{component=\"grpc_requests\",confidence=\"98%\",type=\"gitlab-shell\"} \u003c on(tier, type, __tenant_id__) group_left() (1 - (14.4 * (1 - slo:min:events:gitlab_service_apdex:ratio{component=\"grpc_requests\",type=\"gitlab-shell\"})))),\n    \"period\", \"5m\", \"\", \"\"\n  )\n  or\n  label_replace(\n    vector(2) and on () (gitlab_component_apdex:confidence:ratio_1h{component=\"grpc_requests\",confidence=\"98%\",type=\"gitlab-shell\"} \u003c on(tier, type, __tenant_id__) group_left() (1 - (14.4 * (1 - slo:min:events:gitlab_service_apdex:ratio{component=\"grpc_requests\",type=\"gitlab-shell\"})))),\n    \"period\", \"1h\", \"\", \"\"\n  )\n  or\n  label_replace(\n    vector(4) and on () (gitlab_component_apdex:confidence:ratio_30m{component=\"grpc_requests\",confidence=\"98%\",type=\"gitlab-shell\"} \u003c on(tier, type, __tenant_id__) group_left() (1 - (6 * (1 - slo:min:events:gitlab_service_apdex:ratio{component=\"grpc_requests\",type=\"gitlab-shell\"})))),\n    \"period\", \"30m\", \"\", \"\"\n  )\n  or\n  label_replace(\n    vector(8) and on () (gitlab_component_apdex:confidence:ratio_6h{component=\"grpc_requests\",confidence=\"98%\",type=\"gitlab-shell\"} \u003c on(tier, type, __tenant_id__) group_left() (1 - (6 * (1 - slo:min:events:gitlab_service_apdex:ratio{component=\"grpc_requests\",type=\"gitlab-shell\"})))),\n    \"period\", \"6h\", \"\", \"\"\n  )\n)\n",
          "format": "time_series",
          "instant": true,
          "interval": "1m",
          "intervalFactor": 1,
          "legendFormat": "grpc_requests SLI | Latency/Apdex",
          "refId": "A"
        }
      ],
      "title": "",
      "transparent": false,
      "type": "stat"
    },
    {
      "bars": false,
      "dashLength": 10,
      "dashes": false,
      "datasource": "$PROMETHEUS_DS",
      "decimals": 2,
      "description": "Error rates are a measure of unhandled service exceptions per second. Client errors are excluded when possible. Lower is better",
      "fill": 0,
      "fillGradient": 0,
      "gridPos": {
        "h": 7,
        "w": 6,
        "x": 6,
        "y": 21
      },
      "id": 928307072,
      "legend": {
        "alignAsTable": true,
        "avg": true,
        "current": true,
        "hideEmpty": true,
        "max": true,
        "min": true,
        "rightSide": false,
        "show": true,
        "total": false,
        "values": true
      },
      "lines": true,
      "linewidth": 2,
      "nullPointMode": "null",
      "options": {
        "dataLinks": [
          {
            "targetBlank": true,
            "title": "grpc_requests SLI Error-Rate SLO Analysis",
            "url": "/d/alerts-component_slo_error?${__url_time_range}\u0026${__all_variables}\u0026var-component=grpc_requests\u0026var-type=gitlab-shell"
          }
        ]
      },
      "percentage": false,
      "pointradius": 5,
      "points": false,
      "renderer": "flot",
      "seriesOverrides": [
        {
          "alias": "/6h Degradation SLO \\(5% of monthly error budget\\).*/",
          "color": "#FF4500",
          "dashLength": 4,
          "dashes": true,
          "legend": true,
          "lines": true,
          "linewidth": 2,
          "nullPointMode": "connected",
          "spaceLength": 10,
          "zindex": -2
        },
        {
          "alias": "/1h Outage SLO \\(2% of monthly error budget\\).*/",
          "color": "#F2495C",
          "dashLength": 4,
          "dashes": true,
          "legend": true,
          "lines": true,
          "linewidth": 4,
          "nullPointMode": "connected",
          "spaceLength": 4,
          "zindex": -2
        },
        {
          "alias": "/.*shard (apdex|error ratio|RPS)$/",
          "color": "#E7D551"
        },
        {
          "alias": "grpc_requests error ratio avg",
          "color": "#5794F2",
          "dashLength": 1,
          "fillGradient": 10,
          "linewidth": 1,
          "spaceLength": 1,
          "zindex": -3
        },
        {
          "alias": "last week",
          "color": "#dddddd80",
          "dashLength": 4,
          "dashes": true,
          "fill": 0,
          "legend": true,
          "lines": true,
          "linewidth": 1,
          "nullPointMode": "connected",
          "spaceLength": 2,
          "zindex": -3
        },
        {
          "alias": "Error SLI (lower 98% confidence boundary)",
          "color": "#E7D551",
          "zindex": 3
        },
        {
          "alias": "grpc_requests error ratio",
          "color": "#082e69",
          "lines": true
        }
      ],
      "spaceLength": 10,
      "stableId": "sli-grpc_requests-error-rate",
      "stack": false,
      "steppedLine": false,
      "targets": [
        {
          "expr": "clamp_max(\n  max_over_time(gitlab_component_errors:ratio_5m{component=\"grpc_requests\",type=\"gitlab-shell\"}[$__interval])\n,\n  1\n)\n",
          "format": "time_series",
          "interval": "1m",
          "intervalFactor": 1,
          "legendFormat": "grpc_requests error ratio",
          "refId": "A"
        },
        {
          "expr": "(6 * avg(slo:max:events:gitlab_service_errors:ratio{component=\"grpc_requests\",type=\"gitlab-shell\"})\n)\n",
          "format": "time_series",
          "interval": "5m",
          "intervalFactor": 1,
          "legendFormat": "6h Degradation SLO (5% of monthly error budget)",
          "refId": "B"
        },
        {
          "expr": "(14.4 * avg(slo:max:events:gitlab_service_errors:ratio{component=\"grpc_requests\",type=\"gitlab-shell\"})\n)\n",
          "format": "time_series",
          "interval": "5m",
          "intervalFactor": 1,
          "legendFormat": "1h Outage SLO (2% of monthly error budget)",
          "refId": "C"
        },
        {
          "expr": "clamp_max(\n  avg_over_time(gitlab_component_errors:ratio_5m{component=\"grpc_requests\",type=\"gitlab-shell\"}[$__interval])\n,\n  1\n)\n",
          "format": "time_series",
          "interval": "1m",
          "intervalFactor": 1,
          "legendFormat": "grpc_requests error ratio avg",
          "refId": "D"
        },
        {
          "expr": "clamp_max(\n  gitlab_component_errors:ratio_5m{component=\"grpc_requests\",type=\"gitlab-shell\"} offset 1w\n,\n  scalar(max((14.4 * avg(slo:max:events:gitlab_service_errors:ratio{component=\"grpc_requests\",type=\"gitlab-shell\"})\n)\n))\n)\n",
          "format": "time_series",
          "interval": "1m",
          "intervalFactor": 1,
          "legendFormat": "last week",
          "refId": "E"
        },
        {
          "expr": "clamp_max(\n  avg_over_time(gitlab_component_errors:confidence:ratio_5m{component=\"grpc_requests\",confidence=\"98%\",type=\"gitlab-shell\"}[$__interval])\n,\n  1\n)\n",
          "format": "time_series",
          "interval": "1m",
          "intervalFactor": 1,
          "legendFormat": "Error SLI (lower 98% confidence boundary)",
          "refId": "F"
        }
      ],
      "title": "grpc_requests SLI Error Ratio",
      "tooltip": {
        "shared": true,
        "sort": 2,
        "value_type": "individual"
      },
      "type": "graph",
      "xaxis": {
        "mode": "time",
        "show": true
      },
      "yaxes": [
        {
          "format": "percentunit",
          "label": "Error %",
          "logBase": 1,
          "min": 0,
          "show": true
        },
        {
          "format": "short",
          "logBase": 1,
          "max": 1,
          "min": 0,
          "show": false
        }
      ]
    },
    {
      "datasource": "$PROMETHEUS_DS",
      "description": "",
      "fieldConfig": {
        "defaults": {
          "decimals": 0,
          "displayName": "Status",
          "mappings": [
            {
              "id": 0,
              "options": {
                "0": {
                  "color": "black",
                  "index": 0,
                  "text": "Healthy"
                },
                "1": {
                  "color": "orange",
                  "index": 1,
                  "text": "Warning: 1h deteriorating"
                },
                "10": {
                  "color": "orange",
                  "index": 10,
                  "text": "Warning: 6h recovering, 1h recovering"
                },
                "11": {
                  "color": "red",
                  "index": 11,
                  "text": "Degraded: 6h recovering, 1h degraded"
                },
                "12": {
                  "color": "red",
                  "index": 12,
                  "text": "Degraded: 6h degraded"
                },
                "13": {
                  "color": "red",
                  "index": 13,
                  "text": "Degraded: 6h degraded, 1h deteriorating"
                },
                "14": {
                  "color": "red",
                  "index": 14,
                  "text": "Degraded: 6h degraded, 1h recovering"
                },
                "15": {
                  "color": "red",
                  "index": 15,
                  "text": "Degraded: 6h degraded, 1h degraded"
                },
                "2": {
                  "color": "orange",
                  "index": 2,
                  "text": "Warning: 1h recovering"
                },
                "3": {
                  "color": "red",
                  "index": 3,
                  "text": "Degraded: 1h degraded"
                },
                "4": {
                  "color": "orange",
                  "index": 4,
                  "text": "Warning: 6h deteriorating"
                },
                "5": {
                  "color": "orange",
                  "index": 5,
                  "text": "Warning: 6h deteriorating, 1h deteriorating"
                },
                "6": {
                  "color": "orange",
                  "index": 6,
                  "text": "Warning: 6h deteriorating, 1h recovering"
                },
                "7": {
                  "color": "red",
                  "index": 7,
                  "text": "Degraded: 6h deteriorating, 1h degraded"
                },
                "8": {
                  "color": "orange",
                  "index": 8,
                  "text": "Warning: 6h recovering"
                },
                "9": {
                  "color": "orange",
                  "index": 9,
                  "text": "Warning: 6h recovering, 1h deteriorating"
                }
              },
              "type": "value"
            }
          ],
          "thresholds": {
            "mode": "absolute",
            "steps": [
              {
                "color": "black",
                "value": 0
              },
              {
                "color": "orange",
                "value": 1
              },
              {
                "color": "orange",
                "value": 2
              },
              {
                "color": "red",
                "value": 3
              },
              {
                "color": "orange",
                "value": 4
              },
              {
                "color": "orange",
                "value": 5
              },
              {
                "color": "orange",
                "value": 6
              },
              {
                "color": "red",
                "value": 7
              },
              {
                "color": "orange",
                "value": 8
              },
              {
                "color": "orange",
                "value": 9
              },
              {
                "color": "orange",
                "value": 10
              },
              {
                "color": "red",
                "value": 11
              },
              {
                "color": "red",
                "value": 12
              },
              {
                "color": "red",
                "value": 13
              },
              {
                "color": "red",
                "value": 14
              },
              {
                "color": "red",
                "value": 15
              }
            ]
          },
          "unit": "none"
        }
      },
      "gridPos": {
        "h": 1,
        "w": 6,
        "x": 6,
        "y": 28
      },
      "id": 13,
      "options": {
        "colorMode": "background",
        "graphMode": "none",
        "justifyMode": "auto",
        "orientation": "vertical",
        "reduceOptions": {
          "calcs": [
            "lastNotNull"
          ],
          "fields": "",
          "values": false
        },
        "textMode": "auto"
      },
      "pluginVersion": "7",
      "targets": [
        {
          "expr": "sum(\n  label_replace(\n    vector(0) and on() (gitlab_component_errors:confidence:ratio_1h{component=\"grpc_requests\",confidence=\"98%\",type=\"gitlab-shell\"}),\n    \"period\", \"na\", \"\", \"\"\n  )\n  or\n  label_replace(\n    vector(1) and on () (gitlab_component_errors:confidence:ratio_5m{component=\"grpc_requests\",confidence=\"98%\",type=\"gitlab-shell\"} \u003e on(tier, type, __tenant_id__) group_left() (14.4 * slo:max:events:gitlab_service_errors:ratio{component=\"grpc_requests\",type=\"gitlab-shell\"})),\n    \"period\", \"5m\", \"\", \"\"\n  )\n  or\n  label_replace(\n    vector(2) and on () (gitlab_component_errors:confidence:ratio_1h{component=\"grpc_requests\",confidence=\"98%\",type=\"gitlab-shell\"} \u003e on(tier, type, __tenant_id__) group_left() (14.4 * slo:max:events:gitlab_service_errors:ratio{component=\"grpc_requests\",type=\"gitlab-shell\"})),\n    \"period\", \"1h\", \"\", \"\"\n  )\n  or\n  label_replace(\n    vector(4) and on () (gitlab_component_errors:confidence:ratio_30m{component=\"grpc_requests\",confidence=\"98%\",type=\"gitlab-shell\"} \u003e on(tier, type, __tenant_id__) group_left() (6 * slo:max:events:gitlab_service_errors:ratio{component=\"grpc_requests\",type=\"gitlab-shell\"})),\n    \"period\", \"30m\", \"\", \"\"\n  )\n  or\n  label_replace(\n    vector(8) and on () (gitlab_component_errors:confidence:ratio_6h{component=\"grpc_requests\",confidence=\"98%\",type=\"gitlab-shell\"} \u003e on(tier, type, __tenant_id__) group_left() (6 * slo:max:events:gitlab_service_errors:ratio{component=\"grpc_requests\",type=\"gitlab-shell\"})),\n    \"period\", \"6h\", \"\", \"\"\n  )\n)\n",
          "format": "time_series",
          "instant": true,
          "interval": "1m",
          "intervalFactor": 1,
          "legendFormat": "grpc_requests SLI | Errors",
          "refId": "A"
        }
      ],
      "title": "",
      "transparent": false,
      "type": "stat"
    },
    {
      "bars": false,
      "dashLength": 10,
      "dashes": false,
      "datasource": "$PROMETHEUS_DS",
      "decimals": 2,
      "description": "The operation rate is the sum total of all requests being handle for all components within this service. Note that a single user request can lead to requests to multiple components. Higher is busier.",
      "fill": 0,
      "fillGradient": 0,
      "gridPos": {
        "h": 8,
        "w": 6,
        "x": 12,
        "y": 21
      },
      "id": 3837654202,
      "legend": {
        "alignAsTable": true,
        "avg": true,
        "current": true,
        "hideEmpty": true,
        "max": true,
        "min": true,
        "rightSide": false,
        "show": true,
        "total": false,
        "values": true
      },
      "lines": true,
      "linewidth": 2,
      "nullPointMode": "null",
      "percentage": false,
      "pointradius": 5,
      "points": false,
      "renderer": "flot",
      "seriesOverrides": [
        {
          "alias": "/.*shard (apdex|error ratio|RPS)$/",
          "color": "#E7D551"
        },
        {
          "alias": "grpc_requests RPS",
          "color": "#E7D551",
          "zindex": 3
        },
        {
          "alias": "last week",
          "color": "#dddddd80",
          "dashLength": 4,
          "dashes": true,
          "fill": 0,
          "legend": true,
          "lines": true,
          "linewidth": 1,
          "nullPointMode": "connected",
          "spaceLength": 2,
          "zindex": -3
        }
      ],
      "spaceLength": 10,
      "stableId": "sli-grpc_requests-ops-rate",
      "stack": false,
      "steppedLine": false,
      "targets": [
        {
          "expr": "avg_over_time(gitlab_component_ops:rate_5m{component=\"grpc_requests\",type=\"gitlab-shell\"}[$__interval])\n",
          "format": "time_series",
          "interval": "1m",
          "intervalFactor": 1,
          "legendFormat": "grpc_requests RPS",
          "refId": "A"
        },
        {
          "expr": "gitlab_component_ops:rate_5m{component=\"grpc_requests\",type=\"gitlab-shell\"} offset 1w\n",
          "format": "time_series",
          "interval": "1m",
          "intervalFactor": 1,
          "legendFormat": "last week",
          "refId": "B"
        }
      ],
      "title": "grpc_requests SLI RPS - Requests per Second",
      "tooltip": {
        "shared": true,
        "sort": 2,
        "value_type": "individual"
      },
      "type": "graph",
      "xaxis": {
        "mode": "time",
        "show": true
      },
      "yaxes": [
        {
          "format": "short",
          "label": "Operations per Second",
          "logBase": 1,
          "min": 0,
          "show": true
        },
        {
          "format": "short",
          "logBase": 1,
          "max": 1,
          "min": 0,
          "show": false
        }
      ]
    },
    {
      "content": "### Description\n\nA proxy measurement of the number of GRPC SSH service requests made to Gitaly and Praefect.\n\nSince we are unable to measure gitlab-shell directly at present, this is the best substitute we can provide.\n\n\n\n### Observability Tools\n\n\n",
      "gridPos": {
        "h": 8,
        "w": 6,
        "x": 18,
        "y": 21
      },
      "id": 15,
      "mode": "markdown",
      "title": "Details",
      "type": "text"
    },
    {
      "collapse": true,
      "collapsed": true,
      "gridPos": {
        "h": 10,
        "w": 24,
        "x": 0,
        "y": 200
      },
      "id": 16,
      "panels": [
        {
          "bars": false,
          "dashLength": 10,
          "dashes": false,
          "datasource": "$PROMETHEUS_DS",
          "decimals": 2,
          "description": "",
          "fill": 0,
          "fillGradient": 0,
          "gridPos": {
            "h": 10,
            "w": 8,
            "x": 0,
            "y": 0
          },
          "id": 17,
          "legend": {
            "alignAsTable": true,
            "avg": true,
            "current": true,
            "hideEmpty": true,
            "max": true,
            "min": true,
            "rightSide": false,
            "show": true,
            "total": false,
            "values": true
          },
          "lines": true,
          "linewidth": 2,
          "nullPointMode": "null",
          "percentage": false,
          "pointradius": 5,
          "points": false,
          "renderer": "flot",
          "spaceLength": 10,
          "stack": false,
          "steppedLine": false,
          "targets": [
            {
              "expr": "histogram_quantile(\n  0.950000,\n  sum by (le) (\n    rate(grpc_server_handling_seconds_bucket{grpc_service=\"gitaly.SSHService\",grpc_type=\"unary\",job=\"gitaly\"}[$__interval])\n  )\n)\n \u003e 0",
              "format": "time_series",
              "interval": "1m",
              "intervalFactor": 1,
              "legendFormat": "p95 overall",
              "refId": "A"
            }
          ],
          "thresholds": [
            {
              "colorMode": "custom",
              "fill": true,
              "fillColor": "rgba(242, 73, 92, 0.5)",
              "line": false,
              "op": "gt",
              "value": 60,
              "yaxis": "left"
            },
            {
              "colorMode": "custom",
              "fill": true,
              "fillColor": "rgba(242, 73, 92, 0.25)",
              "line": false,
              "op": "gt",
              "value": 30,
              "yaxis": "left"
            }
          ],
          "title": "Estimated p95 grpc_requests Latency - Overall",
          "tooltip": {
            "shared": true,
            "sort": 2,
            "value_type": "individual"
          },
          "type": "graph",
          "xaxis": {
            "mode": "time",
            "show": true
          },
          "yaxes": [
            {
              "format": "s",
              "label": "Duration",
              "logBase": 10,
              "min": 0.01,
              "show": true
            },
            {
              "format": "short",
              "logBase": 1,
              "max": 1,
              "min": 0,
              "show": false
            }
          ]
        },
        {
          "bars": false,
          "dashLength": 10,
          "dashes": false,
          "datasource": "$PROMETHEUS_DS",
          "decimals": 2,
          "description": "",
          "fill": 0,
          "fillGradient": 0,
          "gridPos": {
            "h": 10,
            "w": 8,
            "x": 8,
            "y": 0
          },
          "id": 18,
          "legend": {
            "alignAsTable": true,
            "avg": true,
            "current": true,
            "hideEmpty": true,
            "max": true,
            "min": true,
            "rightSide": false,
            "show": true,
            "total": false,
            "values": true
          },
          "lines": true,
          "linewidth": 2,
          "nullPointMode": "null",
          "percentage": false,
          "pointradius": 5,
          "points": false,
          "renderer": "flot",
          "spaceLength": 10,
          "stack": false,
          "steppedLine": false,
          "targets": [
            {
              "expr": "sum by () (\n  rate(grpc_server_handled_total{grpc_code!~\"AlreadyExists|Canceled|DeadlineExceeded|FailedPrecondition|InvalidArgument|NotFound|OK|PermissionDenied|ResourceExhausted|Unauthenticated\",grpc_service=\"gitaly.SSHService\",job=\"gitaly\"}[$__interval])\n)\n \u003e 0",
              "format": "time_series",
              "interval": "1m",
              "intervalFactor": 1,
              "legendFormat": "overall",
              "refId": "A"
            }
          ],
          "title": "grpc_requests Errors - Overall",
          "tooltip": {
            "shared": true,
            "sort": 2,
            "value_type": "individual"
          },
          "type": "graph",
          "xaxis": {
            "mode": "time",
            "show": true
          },
          "yaxes": [
            {
              "format": "short",
              "label": "Errors",
              "logBase": 1,
              "min": 0,
              "show": true
            },
            {
              "format": "short",
              "logBase": 1,
              "max": 1,
              "min": 0,
              "show": false
            }
          ]
        },
        {
          "bars": false,
          "dashLength": 10,
          "dashes": false,
          "datasource": "$PROMETHEUS_DS",
          "decimals": 0,
          "description": "",
          "fill": 0,
          "fillGradient": 0,
          "gridPos": {
            "h": 10,
            "w": 8,
            "x": 16,
            "y": 0
          },
          "id": 19,
          "legend": {
            "alignAsTable": true,
            "avg": true,
            "current": true,
            "hideEmpty": true,
            "max": true,
            "min": true,
            "rightSide": false,
            "show": true,
            "total": false,
            "values": true
          },
          "lines": true,
          "linewidth": 2,
          "nullPointMode": "null",
          "percentage": false,
          "pointradius": 5,
          "points": false,
          "renderer": "flot",
          "spaceLength": 10,
          "stack": false,
          "steppedLine": false,
          "targets": [
            {
              "expr": "sum by () (\n  rate(gitaly_service_client_requests_total{grpc_service=\"gitaly.SSHService\",job=\"gitaly\"}[$__interval])\n)\n \u003e 0",
              "format": "time_series",
              "interval": "1m",
              "intervalFactor": 1,
              "legendFormat": "overall",
              "refId": "A"
            }
          ],
          "title": "grpc_requests RPS - Overall",
          "tooltip": {
            "shared": true,
            "sort": 2,
            "value_type": "individual"
          },
          "type": "graph",
          "xaxis": {
            "mode": "time",
            "show": true
          },
          "yaxes": [
            {
              "format": "short",
              "label": "Requests per Second",
              "logBase": 1,
              "min": 0,
              "show": true
            },
            {
              "format": "short",
              "logBase": 1,
              "max": 1,
              "min": 0,
              "show": false
            }
          ]
        },
        {
          "bars": false,
          "dashLength": 10,
          "dashes": false,
          "datasource": "$PROMETHEUS_DS",
          "decimals": 2,
          "description": "",
          "fill": 0,
          "fillGradient": 0,
          "gridPos": {
            "h": 10,
            "w": 6,
            "x": 0,
            "y": 10
          },
          "id": 20,
          "legend": {
            "alignAsTable": true,
            "avg": true,
            "current": true,
            "hideEmpty": true,
            "max": true,
            "min": true,
            "rightSide": false,
            "show": true,
            "total": false,
            "values": true
          },
          "lines": true,
          "linewidth": 2,
          "nullPointMode": "null",
          "percentage": false,
          "pointradius": 5,
          "points": false,
          "renderer": "flot",
          "spaceLength": 10,
          "stack": false,
          "steppedLine": false,
          "targets": [
            {
              "expr": "histogram_quantile(\n  0.950000,\n  sum by (le,node) (\n    rate(grpc_server_handling_seconds_bucket{grpc_service=\"gitaly.SSHService\",grpc_type=\"unary\",job=\"gitaly\",node!=\"\"}[$__interval])\n  )\n)\n \u003e 0",
              "format": "time_series",
              "interval": "1m",
              "intervalFactor": 1,
              "legendFormat": "p95 {{node}}",
              "refId": "A"
            }
          ],
          "thresholds": [
            {
              "colorMode": "custom",
              "fill": true,
              "fillColor": "rgba(242, 73, 92, 0.5)",
              "line": false,
              "op": "gt",
              "value": 60,
              "yaxis": "left"
            },
            {
              "colorMode": "custom",
              "fill": true,
              "fillColor": "rgba(242, 73, 92, 0.25)",
              "line": false,
              "op": "gt",
              "value": 30,
              "yaxis": "left"
            }
          ],
          "title": "Estimated p95 grpc_requests Latency - per node",
          "tooltip": {
            "shared": true,
            "sort": 2,
            "value_type": "individual"
          },
          "type": "graph",
          "xaxis": {
            "mode": "time",
            "show": true
          },
          "yaxes": [
            {
              "format": "s",
              "label": "Duration",
              "logBase": 10,
              "min": 0.01,
              "show": true
            },
            {
              "format": "short",
              "logBase": 1,
              "max": 1,
              "min": 0,
              "show": false
            }
          ]
        },
        {
          "bars": false,
          "dashLength": 10,
          "dashes": false,
          "datasource": "$PROMETHEUS_DS",
          "decimals": 2,
          "description": "Attributes apdex downscoring",
          "fill": 4,
          "fillGradient": 0,
          "gridPos": {
            "h": 10,
            "w": 6,
            "x": 6,
            "y": 10
          },
          "id": 21,
          "legend": {
            "alignAsTable": true,
            "avg": true,
            "current": true,
            "hideEmpty": true,
            "max": true,
            "min": true,
            "rightSide": false,
            "show": true,
            "total": false,
            "values": true
          },
          "lines": true,
          "linewidth": 1,
          "nullPointMode": "null",
          "percentage": false,
          "pointradius": 5,
          "points": false,
          "renderer": "flot",
          "seriesOverrides": [
            {
              "alias": "/.*/",
              "transform": "negative-Y"
            }
          ],
          "spaceLength": 10,
          "stack": true,
          "steppedLine": false,
          "targets": [
            {
              "expr": "clamp_min(clamp_max((\n  (\n    sum by (node) (\n  rate(grpc_server_handling_seconds_bucket{grpc_service=\"gitaly.SSHService\",grpc_type=\"unary\",job=\"gitaly\",le=\"+Inf\",node!=\"\"}[$__interval])\n)\n\n    -\n    (\n      (\n  sum by (node) (\n    rate(grpc_server_handling_seconds_bucket{grpc_service=\"gitaly.SSHService\",grpc_type=\"unary\",job=\"gitaly\",le=\"30\",node!=\"\"}[$__interval])\n  )\n  +\n  sum by (node) (\n    rate(grpc_server_handling_seconds_bucket{grpc_service=\"gitaly.SSHService\",grpc_type=\"unary\",job=\"gitaly\",le=\"60\",node!=\"\"}[$__interval])\n  )\n)\n/\n2\n\n    )\n  )\n  / ignoring(node) group_left()\n  (\n    sum by () (\n  rate(grpc_server_handling_seconds_bucket{grpc_service=\"gitaly.SSHService\",grpc_type=\"unary\",job=\"gitaly\",le=\"+Inf\",node!=\"\"}[$__interval])\n)\n\n  )\n) \u003e 0\n,1),0)\n",
              "format": "time_series",
              "interval": "1m",
              "intervalFactor": 1,
              "legendFormat": "{{node}}",
              "refId": "A"
            }
          ],
          "title": "Apdex attribution for grpc_requests Latency - per node",
          "tooltip": {
            "shared": true,
            "sort": 2,
            "value_type": "individual"
          },
          "type": "graph",
          "xaxis": {
            "mode": "time",
            "show": true
          },
          "yaxes": [
            {
              "format": "percentunit",
              "label": "Percent",
              "logBase": 1,
              "show": true
            },
            {
              "format": "short",
              "logBase": 1,
              "max": 1,
              "min": 0,
              "show": false
            }
          ]
        },
        {
          "bars": false,
          "dashLength": 10,
          "dashes": false,
          "datasource": "$PROMETHEUS_DS",
          "decimals": 2,
          "description": "",
          "fill": 0,
          "fillGradient": 0,
          "gridPos": {
            "h": 10,
            "w": 6,
            "x": 12,
            "y": 10
          },
          "id": 22,
          "legend": {
            "alignAsTable": true,
            "avg": true,
            "current": true,
            "hideEmpty": true,
            "max": true,
            "min": true,
            "rightSide": false,
            "show": true,
            "total": false,
            "values": true
          },
          "lines": true,
          "linewidth": 2,
          "nullPointMode": "null",
          "percentage": false,
          "pointradius": 5,
          "points": false,
          "renderer": "flot",
          "spaceLength": 10,
          "stack": false,
          "steppedLine": false,
          "targets": [
            {
              "expr": "sum by (node) (\n  rate(grpc_server_handled_total{grpc_code!~\"AlreadyExists|Canceled|DeadlineExceeded|FailedPrecondition|InvalidArgument|NotFound|OK|PermissionDenied|ResourceExhausted|Unauthenticated\",grpc_service=\"gitaly.SSHService\",job=\"gitaly\",node!=\"\"}[$__interval])\n)\n \u003e 0",
              "format": "time_series",
              "interval": "1m",
              "intervalFactor": 1,
              "legendFormat": "{{node}}",
              "refId": "A"
            }
          ],
          "title": "grpc_requests Errors - per node",
          "tooltip": {
            "shared": true,
            "sort": 2,
            "value_type": "individual"
          },
          "type": "graph",
          "xaxis": {
            "mode": "time",
            "show": true
          },
          "yaxes": [
            {
              "format": "short",
              "label": "Errors",
              "logBase": 1,
              "min": 0,
              "show": true
            },
            {
              "format": "short",
              "logBase": 1,
              "max": 1,
              "min": 0,
              "show": false
            }
          ]
        },
        {
          "bars": false,
          "dashLength": 10,
          "dashes": false,
          "datasource": "$PROMETHEUS_DS",
          "decimals": 0,
          "description": "",
          "fill": 0,
          "fillGradient": 0,
          "gridPos": {
            "h": 10,
            "w": 6,
            "x": 18,
            "y": 10
          },
          "id": 23,
          "legend": {
            "alignAsTable": true,
            "avg": true,
            "current": true,
            "hideEmpty": true,
            "max": true,
            "min": true,
            "rightSide": false,
            "show": true,
            "total": false,
            "values": true
          },
          "lines": true,
          "linewidth": 2,
          "nullPointMode": "null",
          "percentage": false,
          "pointradius": 5,
          "points": false,
          "renderer": "flot",
          "spaceLength": 10,
          "stack": false,
          "steppedLine": false,
          "targets": [
            {
              "expr": "sum by (node) (\n  rate(gitaly_service_client_requests_total{grpc_service=\"gitaly.SSHService\",job=\"gitaly\",node!=\"\"}[$__interval])\n)\n \u003e 0",
              "format": "time_series",
              "interval": "1m",
              "intervalFactor": 1,
              "legendFormat": "{{node}}",
              "refId": "A"
            }
          ],
          "title": "grpc_requests RPS - per node",
          "tooltip": {
            "shared": true,
            "sort": 2,
            "value_type": "individual"
          },
          "type": "graph",
          "xaxis": {
            "mode": "time",
            "show": true
          },
          "yaxes": [
            {
              "format": "short",
              "label": "Requests per Second",
              "logBase": 1,
              "min": 0,
              "show": true
            },
            {
              "format": "short",
              "logBase": 1,
              "max": 1,
              "min": 0,
              "show": false
            }
          ]
        }
      ],
      "repeat": null,
      "repeatIteration": null,
      "repeatRowId": null,
      "showTitle": true,
      "title": "🔬 SLI Detail: grpc_requests",
      "titleSize": "h6",
      "type": "row"
    },
    {
      "collapse": true,
      "collapsed": true,
      "gridPos": {
        "h": 1,
        "w": 24,
        "x": 0,
        "y": 500
      },
      "id": 24,
      "panels": [
        {
          "aliasColors": {},
          "bars": false,
          "dashLength": 10,
          "dashes": false,
          "datasource": "$PROMETHEUS_DS",
          "decimals": 2,
          "description": "Kubernetes containers can have a limit configured on how much CPU they can consume in\na burst. If we are at this limit, exceeding the allocated requested resources, we\nshould consider revisting the container's HPA configuration.\n\nWhen a container is utilizing CPU resources up-to it's configured limit for\nextended periods of time, this could cause it and other running containers to be\nthrottled.\n Lower is better.",
          "fill": 0,
          "fillGradient": 0,
          "gridPos": {
            "h": 10,
            "w": 12,
            "x": 0,
            "y": 0
          },
          "id": 1262336683,
          "legend": {
            "alignAsTable": true,
            "avg": true,
            "current": true,
            "hideEmpty": true,
            "max": true,
            "min": true,
            "rightSide": false,
            "show": true,
            "sideWidth": null,
            "sort": "max",
            "sortDesc": true,
            "total": false,
            "values": true
          },
          "lines": true,
          "linewidth": 1,
          "links": [],
          "nullPointMode": "null",
          "percentage": false,
          "pointradius": 5,
          "points": false,
          "renderer": "flot",
          "repeat": null,
          "seriesOverrides": [
            {
              "alias": "/^Soft SLO/",
              "color": "#FF4500",
              "dashLength": 4,
              "dashes": true,
              "legend": true,
              "lines": true,
              "linewidth": 2,
              "nullPointMode": "connected",
              "spaceLength": 10,
              "zindex": -2
            },
            {
              "alias": "/^Hard SLO/",
              "color": "#F2495C",
              "dashLength": 4,
              "dashes": true,
              "legend": true,
              "lines": true,
              "linewidth": 4,
              "nullPointMode": "connected",
              "spaceLength": 4,
              "zindex": -2
            },
            {
              "alias": "/aggregated /",
              "color": "#E7D551",
              "linewidth": 2,
              "zindex": 3
            },
            {
              "alias": "/^95th quantile for week/",
              "color": "#37872D",
              "dashLength": 4,
              "dashes": true,
              "legend": true,
              "lines": true,
              "linewidth": 1,
              "nullPointMode": "connected",
              "spaceLength": 10,
              "zindex": -2
            },
            {
              "alias": "/^99th quantile for week/",
              "color": "#56A64B",
              "dashLength": 4,
              "dashes": true,
              "legend": true,
              "lines": true,
              "linewidth": 2,
              "nullPointMode": "connected",
              "spaceLength": 4,
              "zindex": -2
            }
          ],
          "spaceLength": 10,
          "stableId": "saturation-kube_container_cpu_limit",
          "stack": false,
          "steppedLine": false,
          "targets": [
            {
              "expr": "clamp_min(\n  clamp_max(\n    max by(type, pod, container) (\n  clamp_min(\n    clamp_max(\n      sum by (type, pod, container) (\n        rate(container_cpu_usage_seconds_total:labeled{container!=\"\", container!=\"POD\", type=\"gitlab-shell\"}[5m])\n      )\n      /\n      sum by(type, pod, container) (\n        container_spec_cpu_quota:labeled{container!=\"\", container!=\"POD\", type=\"gitlab-shell\"}\n        /\n        container_spec_cpu_period:labeled{container!=\"\", container!=\"POD\", type=\"gitlab-shell\"}\n      )\n      ,\n      1)\n  ,\n  0)\n)\n\n  ,1)\n,0)\n",
              "format": "time_series",
              "interval": "1m",
              "intervalFactor": 1,
              "legendFormat": "{{ pod }} {{ container }}",
              "refId": "A"
            },
            {
              "expr": "clamp_min(\n  clamp_max(\n    max(\n      max_over_time(gitlab_component_saturation:ratio{type=\"gitlab-shell\", component=\"kube_container_cpu_limit\"}[$__interval])\n    ) by (component)\n  ,1)\n,0)\n",
              "format": "time_series",
              "interval": "1m",
              "intervalFactor": 1,
              "legendFormat": "aggregated {{ component }}",
              "refId": "B"
            },
            {
              "expr": "max(\n  gitlab_component_saturation:ratio_quantile95_1w{type=\"gitlab-shell\", component=\"kube_container_cpu_limit\"}\n)\n",
              "format": "time_series",
              "interval": "1m",
              "intervalFactor": 1,
              "legendFormat": "95th quantile for week {{ component }}",
              "refId": "C"
            },
            {
              "expr": "max(\n  gitlab_component_saturation:ratio_quantile99_1w{type=\"gitlab-shell\", component=\"kube_container_cpu_limit\"}\n)\n",
              "format": "time_series",
              "interval": "1m",
              "intervalFactor": 1,
              "legendFormat": "99th quantile for week {{ component }}",
              "refId": "D"
            },
            {
              "expr": "avg(slo:max:soft:gitlab_component_saturation:ratio{component=\"kube_container_cpu_limit\"}) by (component)\n",
              "format": "time_series",
              "interval": "1m",
              "intervalFactor": 1,
              "legendFormat": "Soft SLO: {{ component }}",
              "refId": "E"
            },
            {
              "expr": "avg(slo:max:hard:gitlab_component_saturation:ratio{component=\"kube_container_cpu_limit\"}) by (component)\n",
              "format": "time_series",
              "interval": "1m",
              "intervalFactor": 1,
              "legendFormat": "Hard SLO: {{ component }}",
              "refId": "F"
            }
          ],
          "thresholds": [],
          "timeFrom": null,
          "timeShift": null,
          "title": "kube_container_cpu_limit component saturation: Kube Container CPU over-utilization",
          "tooltip": {
            "shared": true,
            "sort": 2,
            "value_type": "individual"
          },
          "type": "graph",
          "xaxis": {
            "buckets": null,
            "mode": "time",
            "name": null,
            "show": true,
            "values": []
          },
          "yaxes": [
            {
              "format": "percentunit",
              "label": "Saturation %",
              "logBase": 1,
              "max": 1,
              "min": null,
              "show": true
            },
            {
              "format": "short",
              "label": null,
              "logBase": 1,
              "max": 1,
              "min": 0,
              "show": false
            }
          ]
        },
        {
          "aliasColors": {},
          "bars": false,
          "dashLength": 10,
          "dashes": false,
          "datasource": "$PROMETHEUS_DS",
          "decimals": 2,
          "description": "This uses the working set size from cAdvisor for the cgroup's memory usage. That may\nnot be a good measure as it includes filesystem cache pages that are not necessarily\nattributable to the application inside the cgroup, and are permitted to be evicted\ninstead of being OOM killed.\n Lower is better.",
          "fill": 0,
          "fillGradient": 0,
          "gridPos": {
            "h": 10,
            "w": 12,
            "x": 12,
            "y": 0
          },
          "id": 172578411,
          "legend": {
            "alignAsTable": true,
            "avg": true,
            "current": true,
            "hideEmpty": true,
            "max": true,
            "min": true,
            "rightSide": false,
            "show": true,
            "sideWidth": null,
            "sort": "max",
            "sortDesc": true,
            "total": false,
            "values": true
          },
          "lines": true,
          "linewidth": 1,
          "links": [],
          "nullPointMode": "null",
          "percentage": false,
          "pointradius": 5,
          "points": false,
          "renderer": "flot",
          "repeat": null,
          "seriesOverrides": [
            {
              "alias": "/^Soft SLO/",
              "color": "#FF4500",
              "dashLength": 4,
              "dashes": true,
              "legend": true,
              "lines": true,
              "linewidth": 2,
              "nullPointMode": "connected",
              "spaceLength": 10,
              "zindex": -2
            },
            {
              "alias": "/^Hard SLO/",
              "color": "#F2495C",
              "dashLength": 4,
              "dashes": true,
              "legend": true,
              "lines": true,
              "linewidth": 4,
              "nullPointMode": "connected",
              "spaceLength": 4,
              "zindex": -2
            },
            {
              "alias": "/aggregated /",
              "color": "#E7D551",
              "linewidth": 2,
              "zindex": 3
            },
            {
              "alias": "/^95th quantile for week/",
              "color": "#37872D",
              "dashLength": 4,
              "dashes": true,
              "legend": true,
              "lines": true,
              "linewidth": 1,
              "nullPointMode": "connected",
              "spaceLength": 10,
              "zindex": -2
            },
            {
              "alias": "/^99th quantile for week/",
              "color": "#56A64B",
              "dashLength": 4,
              "dashes": true,
              "legend": true,
              "lines": true,
              "linewidth": 2,
              "nullPointMode": "connected",
              "spaceLength": 4,
              "zindex": -2
            }
          ],
          "spaceLength": 10,
          "stableId": "saturation-kube_container_memory",
          "stack": false,
          "steppedLine": false,
          "targets": [
            {
              "expr": "clamp_min(\n  clamp_max(\n    max by(type) (\n  clamp_min(\n    clamp_max(\n      container_memory_working_set_bytes:labeled{container!=\"\", container!=\"POD\", type=\"gitlab-shell\"}\n      /\n      (container_spec_memory_limit_bytes:labeled{container!=\"\", container!=\"POD\", type=\"gitlab-shell\"} \u003e 0)\n      ,\n      1)\n  ,\n  0)\n)\n\n  ,1)\n,0)\n",
              "format": "time_series",
              "interval": "1m",
              "intervalFactor": 1,
              "legendFormat": "{{ type }}",
              "refId": "A"
            },
            {
              "expr": "clamp_min(\n  clamp_max(\n    max(\n      max_over_time(gitlab_component_saturation:ratio{type=\"gitlab-shell\", component=\"kube_container_memory\"}[$__interval])\n    ) by (component)\n  ,1)\n,0)\n",
              "format": "time_series",
              "interval": "1m",
              "intervalFactor": 1,
              "legendFormat": "aggregated {{ component }}",
              "refId": "B"
            },
            {
              "expr": "max(\n  gitlab_component_saturation:ratio_quantile95_1w{type=\"gitlab-shell\", component=\"kube_container_memory\"}\n)\n",
              "format": "time_series",
              "interval": "1m",
              "intervalFactor": 1,
              "legendFormat": "95th quantile for week {{ component }}",
              "refId": "C"
            },
            {
              "expr": "max(\n  gitlab_component_saturation:ratio_quantile99_1w{type=\"gitlab-shell\", component=\"kube_container_memory\"}\n)\n",
              "format": "time_series",
              "interval": "1m",
              "intervalFactor": 1,
              "legendFormat": "99th quantile for week {{ component }}",
              "refId": "D"
            },
            {
              "expr": "avg(slo:max:soft:gitlab_component_saturation:ratio{component=\"kube_container_memory\"}) by (component)\n",
              "format": "time_series",
              "interval": "1m",
              "intervalFactor": 1,
              "legendFormat": "Soft SLO: {{ component }}",
              "refId": "E"
            },
            {
              "expr": "avg(slo:max:hard:gitlab_component_saturation:ratio{component=\"kube_container_memory\"}) by (component)\n",
              "format": "time_series",
              "interval": "1m",
              "intervalFactor": 1,
              "legendFormat": "Hard SLO: {{ component }}",
              "refId": "F"
            }
          ],
          "thresholds": [],
          "timeFrom": null,
          "timeShift": null,
          "title": "kube_container_memory component saturation: Kube Container Memory Utilization",
          "tooltip": {
            "shared": true,
            "sort": 2,
            "value_type": "individual"
          },
          "type": "graph",
          "xaxis": {
            "buckets": null,
            "mode": "time",
            "name": null,
            "show": true,
            "values": []
          },
          "yaxes": [
            {
              "format": "percentunit",
              "label": "Saturation %",
              "logBase": 1,
              "max": 1,
              "min": null,
              "show": true
            },
            {
              "format": "short",
              "label": null,
              "logBase": 1,
              "max": 1,
              "min": 0,
              "show": false
            }
          ]
        }
      ],
      "repeat": null,
      "repeatIteration": null,
      "repeatRowId": null,
      "showTitle": true,
      "title": "🌡 Saturation Details",
      "titleSize": "h6",
      "type": "row"
    },
    {
      "content": "Made with ❤️ and [Grafonnet](https://github.com/grafana/grafonnet-lib). [Contribute to this dashboard on GitLab.com](https://gitlab.com/gitlab-com/runbooks/blob/master/dashboards)\n",
      "datasource": null,
      "gridPos": {
        "h": 2,
        "w": 24,
        "x": 0,
        "y": 110000
      },
      "id": 27,
      "mode": "markdown",
      "title": "Source",
      "type": "text"
    }
  ],
  "refresh": "",
  "rows": [],
  "schemaVersion": 16,
  "style": "light",
  "tags": [
    "gitlab",
    "type:gitlab-shell",
    "gitlab-shell",
    "service overview"
  ],
  "templating": {
    "list": [
      {
        "current": {
          "text": "default",
          "value": "default"
        },
        "hide": 0,
        "label": null,
        "name": "PROMETHEUS_DS",
        "options": [],
        "query": "prometheus",
        "refresh": 1,
        "regex": "",
        "type": "datasource"
      }
    ]
  },
  "time": {
    "from": "now-6h/m",
    "to": "now/m"
  },
  "timepicker": {
    "refresh_intervals": [
      "1m",
      "5m",
      "10m",
      "15m",
      "30m"
    ],
    "time_options": [
      "5m",
      "15m",
      "1h",
      "6h",
      "12h",
      "24h",
      "2d",
      "7d",
      "30d"
    ]
  },
  "timezone": "utc",
  "title": "gitlab-shell Service Overview",
  "uid": "gitlab-shell-main",
  "version": 0
}